gui/Regression_Test.vcd
$date
   Sun Feb 23 18:00:36 2025
$end
$version
  2018.2
$end
$timescale
  1ps
$end
$scope module single_cycle_tb $end
$scope module dut $end
$var wire 1 ! clk $end
$var wire 1 " reset $end
$scope module IF $end
$scope module pc_module $end
$var reg 32 # pc [31:0] $end
$upscope $end
$scope module instruction_buffer $end
$var reg 2048 $ mem [63:0] $end
$upscope $end
$upscope $end
$scope module ID $end
$scope module register_file $end
$var reg 992 % register_file [31:1] $end
$upscope $end
$upscope $end
$scope module MEM $end
$scope module data_memory $end
$var reg 2048 & mem [63:0] $end
$upscope $end
$upscope $end
$upscope $end
$upscope $end
$enddefinitions $end
#0
$dumpvars
0!
1"
bx #
bx $
bx %
bx &
$end
#5000
1!
b0 #
bx00000000000000000000000100010011 $
b0 %
#10000
0!
#15000
1!
bx0000000001000000000000001110111100000000000000000000000100010011 $
#20000
0!
#25000
1!
bx111001010000000100000001000100110000000001000000000000001110111100000000000000000000000100010011 $
#30000
0!
#35000
1!
bx00011010000100010010011000100011111001010000000100000001000100110000000001000000000000001110111100000000000000000000000100010011 $
#40000
0!
#45000
1!
bx0001101010000001001001000010001100011010000100010010011000100011111001010000000100000001000100110000000001000000000000001110111100000000000000000000000100010011 $
#50000
0!
#55000
1!
bx000110110000000100000100000100110001101010000001001001000010001100011010000100010010011000100011111001010000000100000001000100110000000001000000000000001110111100000000000000000000000100010011 $
#60000
0!
#65000
1!
bx11100100000001000010111000100011000110110000000100000100000100110001101010000001001001000010001100011010000100010010011000100011111001010000000100000001000100110000000001000000000000001110111100000000000000000000000100010011 $
#70000
0!
#75000
1!
bx0000000000000000000001111011011111100100000001000010111000100011000110110000000100000100000100110001101010000001001001000010001100011010000100010010011000100011111001010000000100000001000100110000000001000000000000001110111100000000000000000000000100010011 $
#80000
0!
#85000
1!
bx000000000001011110000111100100110000000000000000000001111011011111100100000001000010111000100011000110110000000100000100000100110001101010000001001001000010001100011010000100010010011000100011111001010000000100000001000100110000000001000000000000001110111100000000000000000000000100010011 $
#90000
0!
#95000
1!
bx11100110111101000010000000100011000000000001011110000111100100110000000000000000000001111011011111100100000001000010111000100011000110110000000100000100000100110001101010000001001001000010001100011010000100010010011000100011111001010000000100000001000100110000000001000000000000001110111100000000000000000000000100010011 $
#100000
0!
#105000
1!
bx0000000000000000000001111011011111100110111101000010000000100011000000000001011110000111100100110000000000000000000001111011011111100100000001000010111000100011000110110000000100000100000100110001101010000001001001000010001100011010000100010010011000100011111001010000000100000001000100110000000001000000000000001110111100000000000000000000000100010011 $
#110000
0!
#115000
1!
bx000000000010011110000111100100110000000000000000000001111011011111100110111101000010000000100011000000000001011110000111100100110000000000000000000001111011011111100100000001000010111000100011000110110000000100000100000100110001101010000001001001000010001100011010000100010010011000100011111001010000000100000001000100110000000001000000000000001110111100000000000000000000000100010011 $
#120000
0!
#125000
1!
bx11111110111101000010011000100011000000000010011110000111100100110000000000000000000001111011011111100110111101000010000000100011000000000001011110000111100100110000000000000000000001111011011111100100000001000010111000100011000110110000000100000100000100110001101010000001001001000010001100011010000100010010011000100011111001010000000100000001000100110000000001000000000000001110111100000000000000000000000100010011 $
#130000
0!
#135000
1!
bx0000010111000000000000000110111111111110111101000010011000100011000000000010011110000111100100110000000000000000000001111011011111100110111101000010000000100011000000000001011110000111100100110000000000000000000001111011011111100100000001000010111000100011000110110000000100000100000100110001101010000001001001000010001100011010000100010010011000100011111001010000000100000001000100110000000001000000000000001110111100000000000000000000000100010011 $
#140000
0!
#145000
1!
bx111111101100010000100111100000110000010111000000000000000110111111111110111101000010011000100011000000000010011110000111100100110000000000000000000001111011011111100110111101000010000000100011000000000001011110000111100100110000000000000000000001111011011111100100000001000010111000100011000110110000000100000100000100110001101010000001001001000010001100011010000100010010011000100011111001010000000100000001000100110000000001000000000000001110111100000000000000000000000100010011 $
#150000
0!
#155000
1!
bx11111111111101111000011100010011111111101100010000100111100000110000010111000000000000000110111111111110111101000010011000100011000000000010011110000111100100110000000000000000000001111011011111100110111101000010000000100011000000000001011110000111100100110000000000000000000001111011011111100100000001000010111000100011000110110000000100000100000100110001101010000001001001000010001100011010000100010010011000100011111001010000000100000001000100110000000001000000000000001110111100000000000000000000000100010011 $
#160000
0!
#165000
1!
bx1110010111000100000001111001001111111111111101111000011100010011111111101100010000100111100000110000010111000000000000000110111111111110111101000010011000100011000000000010011110000111100100110000000000000000000001111011011111100110111101000010000000100011000000000001011110000111100100110000000000000000000001111011011111100100000001000010111000100011000110110000000100000100000100110001101010000001001001000010001100011010000100010010011000100011111001010000000100000001000100110000000001000000000000001110111100000000000000000000000100010011 $
#170000
0!
#175000
1!
bx000000000010011100010111000100111110010111000100000001111001001111111111111101111000011100010011111111101100010000100111100000110000010111000000000000000110111111111110111101000010011000100011000000000010011110000111100100110000000000000000000001111011011111100110111101000010000000100011000000000001011110000111100100110000000000000000000001111011011111100100000001000010111000100011000110110000000100000100000100110001101010000001001001000010001100011010000100010010011000100011111001010000000100000001000100110000000001000000000000001110111100000000000000000000000100010011 $
#180000
0!
#185000
1!
bx00000000111101110000011110110011000000000010011100010111000100111110010111000100000001111001001111111111111101111000011100010011111111101100010000100111100000110000010111000000000000000110111111111110111101000010011000100011000000000010011110000111100100110000000000000000000001111011011111100110111101000010000000100011000000000001011110000111100100110000000000000000000001111011011111100100000001000010111000100011000110110000000100000100000100110001101010000001001001000010001100011010000100010010011000100011111001010000000100000001000100110000000001000000000000001110111100000000000000000000000100010011 $
#190000
0!
#195000
1!
bx0000000000000111101001110000001100000000111101110000011110110011000000000010011100010111000100111110010111000100000001111001001111111111111101111000011100010011111111101100010000100111100000110000010111000000000000000110111111111110111101000010011000100011000000000010011110000111100100110000000000000000000001111011011111100110111101000010000000100011000000000001011110000111100100110000000000000000000001111011011111100100000001000010111000100011000110110000000100000100000100110001101010000001001001000010001100011010000100010010011000100011111001010000000100000001000100110000000001000000000000001110111100000000000000000000000100010011 $
#200000
0!
#205000
1!
bx111111101100010000100111100000110000000000000111101001110000001100000000111101110000011110110011000000000010011100010111000100111110010111000100000001111001001111111111111101111000011100010011111111101100010000100111100000110000010111000000000000000110111111111110111101000010011000100011000000000010011110000111100100110000000000000000000001111011011111100110111101000010000000100011000000000001011110000111100100110000000000000000000001111011011111100100000001000010111000100011000110110000000100000100000100110001101010000001001001000010001100011010000100010010011000100011111001010000000100000001000100110000000001000000000000001110111100000000000000000000000100010011 $
#210000
0!
#215000
1!
bx11111111111001111000011010010011111111101100010000100111100000110000000000000111101001110000001100000000111101110000011110110011000000000010011100010111000100111110010111000100000001111001001111111111111101111000011100010011111111101100010000100111100000110000010111000000000000000110111111111110111101000010011000100011000000000010011110000111100100110000000000000000000001111011011111100110111101000010000000100011000000000001011110000111100100110000000000000000000001111011011111100100000001000010111000100011000110110000000100000100000100110001101010000001001001000010001100011010000100010010011000100011111001010000000100000001000100110000000001000000000000001110111100000000000000000000000100010011 $
#220000
0!
#225000
1!
bx1110010111000100000001111001001111111111111001111000011010010011111111101100010000100111100000110000000000000111101001110000001100000000111101110000011110110011000000000010011100010111000100111110010111000100000001111001001111111111111101111000011100010011111111101100010000100111100000110000010111000000000000000110111111111110111101000010011000100011000000000010011110000111100100110000000000000000000001111011011111100110111101000010000000100011000000000001011110000111100100110000000000000000000001111011011111100100000001000010111000100011000110110000000100000100000100110001101010000001001001000010001100011010000100010010011000100011111001010000000100000001000100110000000001000000000000001110111100000000000000000000000100010011 $
#230000
0!
#235000
1!
bx000000000010011010010110100100111110010111000100000001111001001111111111111001111000011010010011111111101100010000100111100000110000000000000111101001110000001100000000111101110000011110110011000000000010011100010111000100111110010111000100000001111001001111111111111101111000011100010011111111101100010000100111100000110000010111000000000000000110111111111110111101000010011000100011000000000010011110000111100100110000000000000000000001111011011111100110111101000010000000100011000000000001011110000111100100110000000000000000000001111011011111100100000001000010111000100011000110110000000100000100000100110001101010000001001001000010001100011010000100010010011000100011111001010000000100000001000100110000000001000000000000001110111100000000000000000000000100010011 $
#240000
0!
#245000
1!
bx00000000111101101000011110110011000000000010011010010110100100111110010111000100000001111001001111111111111001111000011010010011111111101100010000100111100000110000000000000111101001110000001100000000111101110000011110110011000000000010011100010111000100111110010111000100000001111001001111111111111101111000011100010011111111101100010000100111100000110000010111000000000000000110111111111110111101000010011000100011000000000010011110000111100100110000000000000000000001111011011111100110111101000010000000100011000000000001011110000111100100110000000000000000000001111011011111100100000001000010111000100011000110110000000100000100000100110001101010000001001001000010001100011010000100010010011000100011111001010000000100000001000100110000000001000000000000001110111100000000000000000000000100010011 $
#250000
0!
#255000
1!
bx0000000000000111101001111000001100000000111101101000011110110011000000000010011010010110100100111110010111000100000001111001001111111111111001111000011010010011111111101100010000100111100000110000000000000111101001110000001100000000111101110000011110110011000000000010011100010111000100111110010111000100000001111001001111111111111101111000011100010011111111101100010000100111100000110000010111000000000000000110111111111110111101000010011000100011000000000010011110000111100100110000000000000000000001111011011111100110111101000010000000100011000000000001011110000111100100110000000000000000000001111011011111100100000001000010111000100011000110110000000100000100000100110001101010000001001001000010001100011010000100010010011000100011111001010000000100000001000100110000000001000000000000001110111100000000000000000000000100010011 $
#260000
0!
#265000
1!
bx000000001111011100000111001100110000000000000111101001111000001100000000111101101000011110110011000000000010011010010110100100111110010111000100000001111001001111111111111001111000011010010011111111101100010000100111100000110000000000000111101001110000001100000000111101110000011110110011000000000010011100010111000100111110010111000100000001111001001111111111111101111000011100010011111111101100010000100111100000110000010111000000000000000110111111111110111101000010011000100011000000000010011110000111100100110000000000000000000001111011011111100110111101000010000000100011000000000001011110000111100100110000000000000000000001111011011111100100000001000010111000100011000110110000000100000100000100110001101010000001001001000010001100011010000100010010011000100011111001010000000100000001000100110000000001000000000000001110111100000000000000000000000100010011 $
#270000
0!
#275000
1!
bx11111110110001000010011010000011000000001111011100000111001100110000000000000111101001111000001100000000111101101000011110110011000000000010011010010110100100111110010111000100000001111001001111111111111001111000011010010011111111101100010000100111100000110000000000000111101001110000001100000000111101110000011110110011000000000010011100010111000100111110010111000100000001111001001111111111111101111000011100010011111111101100010000100111100000110000010111000000000000000110111111111110111101000010011000100011000000000010011110000111100100110000000000000000000001111011011111100110111101000010000000100011000000000001011110000111100100110000000000000000000001111011011111100100000001000010111000100011000110110000000100000100000100110001101010000001001001000010001100011010000100010010011000100011111001010000000100000001000100110000000001000000000000001110111100000000000000000000000100010011 $
#280000
0!
#285000
1!
bx1110010111000100000001111001001111111110110001000010011010000011000000001111011100000111001100110000000000000111101001111000001100000000111101101000011110110011000000000010011010010110100100111110010111000100000001111001001111111111111001111000011010010011111111101100010000100111100000110000000000000111101001110000001100000000111101110000011110110011000000000010011100010111000100111110010111000100000001111001001111111111111101111000011100010011111111101100010000100111100000110000010111000000000000000110111111111110111101000010011000100011000000000010011110000111100100110000000000000000000001111011011111100110111101000010000000100011000000000001011110000111100100110000000000000000000001111011011111100100000001000010111000100011000110110000000100000100000100110001101010000001001001000010001100011010000100010010011000100011111001010000000100000001000100110000000001000000000000001110111100000000000000000000000100010011 $
#290000
0!
#295000
1!
bx000000000010011010010110100100111110010111000100000001111001001111111110110001000010011010000011000000001111011100000111001100110000000000000111101001111000001100000000111101101000011110110011000000000010011010010110100100111110010111000100000001111001001111111111111001111000011010010011111111101100010000100111100000110000000000000111101001110000001100000000111101110000011110110011000000000010011100010111000100111110010111000100000001111001001111111111111101111000011100010011111111101100010000100111100000110000010111000000000000000110111111111110111101000010011000100011000000000010011110000111100100110000000000000000000001111011011111100110111101000010000000100011000000000001011110000111100100110000000000000000000001111011011111100100000001000010111000100011000110110000000100000100000100110001101010000001001001000010001100011010000100010010011000100011111001010000000100000001000100110000000001000000000000001110111100000000000000000000000100010011 $
#300000
0!
#305000
1!
bx00000000111101101000011110110011000000000010011010010110100100111110010111000100000001111001001111111110110001000010011010000011000000001111011100000111001100110000000000000111101001111000001100000000111101101000011110110011000000000010011010010110100100111110010111000100000001111001001111111111111001111000011010010011111111101100010000100111100000110000000000000111101001110000001100000000111101110000011110110011000000000010011100010111000100111110010111000100000001111001001111111111111101111000011100010011111111101100010000100111100000110000010111000000000000000110111111111110111101000010011000100011000000000010011110000111100100110000000000000000000001111011011111100110111101000010000000100011000000000001011110000111100100110000000000000000000001111011011111100100000001000010111000100011000110110000000100000100000100110001101010000001001001000010001100011010000100010010011000100011111001010000000100000001000100110000000001000000000000001110111100000000000000000000000100010011 $
#310000
0!
#315000
1!
bx0000000011100111101000000010001100000000111101101000011110110011000000000010011010010110100100111110010111000100000001111001001111111110110001000010011010000011000000001111011100000111001100110000000000000111101001111000001100000000111101101000011110110011000000000010011010010110100100111110010111000100000001111001001111111111111001111000011010010011111111101100010000100111100000110000000000000111101001110000001100000000111101110000011110110011000000000010011100010111000100111110010111000100000001111001001111111111111101111000011100010011111111101100010000100111100000110000010111000000000000000110111111111110111101000010011000100011000000000010011110000111100100110000000000000000000001111011011111100110111101000010000000100011000000000001011110000111100100110000000000000000000001111011011111100100000001000010111000100011000110110000000100000100000100110001101010000001001001000010001100011010000100010010011000100011111001010000000100000001000100110000000001000000000000001110111100000000000000000000000100010011 $
#320000
0!
#325000
1!
bx111111101100010000100111100000110000000011100111101000000010001100000000111101101000011110110011000000000010011010010110100100111110010111000100000001111001001111111110110001000010011010000011000000001111011100000111001100110000000000000111101001111000001100000000111101101000011110110011000000000010011010010110100100111110010111000100000001111001001111111111111001111000011010010011111111101100010000100111100000110000000000000111101001110000001100000000111101110000011110110011000000000010011100010111000100111110010111000100000001111001001111111111111101111000011100010011111111101100010000100111100000110000010111000000000000000110111111111110111101000010011000100011000000000010011110000111100100110000000000000000000001111011011111100110111101000010000000100011000000000001011110000111100100110000000000000000000001111011011111100100000001000010111000100011000110110000000100000100000100110001101010000001001001000010001100011010000100010010011000100011111001010000000100000001000100110000000001000000000000001110111100000000000000000000000100010011 $
#330000
0!
#335000
1!
bx00000000000101111000011110010011111111101100010000100111100000110000000011100111101000000010001100000000111101101000011110110011000000000010011010010110100100111110010111000100000001111001001111111110110001000010011010000011000000001111011100000111001100110000000000000111101001111000001100000000111101101000011110110011000000000010011010010110100100111110010111000100000001111001001111111111111001111000011010010011111111101100010000100111100000110000000000000111101001110000001100000000111101110000011110110011000000000010011100010111000100111110010111000100000001111001001111111111111101111000011100010011111111101100010000100111100000110000010111000000000000000110111111111110111101000010011000100011000000000010011110000111100100110000000000000000000001111011011111100110111101000010000000100011000000000001011110000111100100110000000000000000000001111011011111100100000001000010111000100011000110110000000100000100000100110001101010000001001001000010001100011010000100010010011000100011111001010000000100000001000100110000000001000000000000001110111100000000000000000000000100010011 $
#340000
0!
#345000
1!
bx1111111011110100001001100010001100000000000101111000011110010011111111101100010000100111100000110000000011100111101000000010001100000000111101101000011110110011000000000010011010010110100100111110010111000100000001111001001111111110110001000010011010000011000000001111011100000111001100110000000000000111101001111000001100000000111101101000011110110011000000000010011010010110100100111110010111000100000001111001001111111111111001111000011010010011111111101100010000100111100000110000000000000111101001110000001100000000111101110000011110110011000000000010011100010111000100111110010111000100000001111001001111111111111101111000011100010011111111101100010000100111100000110000010111000000000000000110111111111110111101000010011000100011000000000010011110000111100100110000000000000000000001111011011111100110111101000010000000100011000000000001011110000111100100110000000000000000000001111011011111100100000001000010111000100011000110110000000100000100000100110001101010000001001001000010001100011010000100010010011000100011111001010000000100000001000100110000000001000000000000001110111100000000000000000000000100010011 $
#350000
0!
#355000
1!
bx111111101100010000100111000000111111111011110100001001100010001100000000000101111000011110010011111111101100010000100111100000110000000011100111101000000010001100000000111101101000011110110011000000000010011010010110100100111110010111000100000001111001001111111110110001000010011010000011000000001111011100000111001100110000000000000111101001111000001100000000111101101000011110110011000000000010011010010110100100111110010111000100000001111001001111111111111001111000011010010011111111101100010000100111100000110000000000000111101001110000001100000000111101110000011110110011000000000010011100010111000100111110010111000100000001111001001111111111111101111000011100010011111111101100010000100111100000110000010111000000000000000110111111111110111101000010011000100011000000000010011110000111100100110000000000000000000001111011011111100110111101000010000000100011000000000001011110000111100100110000000000000000000001111011011111100100000001000010111000100011000110110000000100000100000100110001101010000001001001000010001100011010000100010010011000100011111001010000000100000001000100110000000001000000000000001110111100000000000000000000000100010011 $
#360000
0!
#365000
1!
bx00000000000000000000011110110111111111101100010000100111000000111111111011110100001001100010001100000000000101111000011110010011111111101100010000100111100000110000000011100111101000000010001100000000111101101000011110110011000000000010011010010110100100111110010111000100000001111001001111111110110001000010011010000011000000001111011100000111001100110000000000000111101001111000001100000000111101101000011110110011000000000010011010010110100100111110010111000100000001111001001111111111111001111000011010010011111111101100010000100111100000110000000000000111101001110000001100000000111101110000011110110011000000000010011100010111000100111110010111000100000001111001001111111111111101111000011100010011111111101100010000100111100000110000010111000000000000000110111111111110111101000010011000100011000000000010011110000111100100110000000000000000000001111011011111100110111101000010000000100011000000000001011110000111100100110000000000000000000001111011011111100100000001000010111000100011000110110000000100000100000100110001101010000001001001000010001100011010000100010010011000100011111001010000000100000001000100110000000001000000000000001110111100000000000000000000000100010011 $
#370000
0!
#375000
1!
bx0000011000110111100001111001001100000000000000000000011110110111111111101100010000100111000000111111111011110100001001100010001100000000000101111000011110010011111111101100010000100111100000110000000011100111101000000010001100000000111101101000011110110011000000000010011010010110100100111110010111000100000001111001001111111110110001000010011010000011000000001111011100000111001100110000000000000111101001111000001100000000111101101000011110110011000000000010011010010110100100111110010111000100000001111001001111111111111001111000011010010011111111101100010000100111100000110000000000000111101001110000001100000000111101110000011110110011000000000010011100010111000100111110010111000100000001111001001111111111111101111000011100010011111111101100010000100111100000110000010111000000000000000110111111111110111101000010011000100011000000000010011110000111100100110000000000000000000001111011011111100110111101000010000000100011000000000001011110000111100100110000000000000000000001111011011111100100000001000010111000100011000110110000000100000100000100110001101010000001001001000010001100011010000100010010011000100011111001010000000100000001000100110000000001000000000000001110111100000000000000000000000100010011 $
#380000
0!
#385000
1!
bx111110101110011111010000111000110000011000110111100001111001001100000000000000000000011110110111111111101100010000100111000000111111111011110100001001100010001100000000000101111000011110010011111111101100010000100111100000110000000011100111101000000010001100000000111101101000011110110011000000000010011010010110100100111110010111000100000001111001001111111110110001000010011010000011000000001111011100000111001100110000000000000111101001111000001100000000111101101000011110110011000000000010011010010110100100111110010111000100000001111001001111111111111001111000011010010011111111101100010000100111100000110000000000000111101001110000001100000000111101110000011110110011000000000010011100010111000100111110010111000100000001111001001111111111111101111000011100010011111111101100010000100111100000110000010111000000000000000110111111111110111101000010011000100011000000000010011110000111100100110000000000000000000001111011011111100110111101000010000000100011000000000001011110000111100100110000000000000000000001111011011111100100000001000010111000100011000110110000000100000100000100110001101010000001001001000010001100011010000100010010011000100011111001010000000100000001000100110000000001000000000000001110111100000000000000000000000100010011 $
#390000
0!
#395000
1!
bx00000000000000000000011110110111111110101110011111010000111000110000011000110111100001111001001100000000000000000000011110110111111111101100010000100111000000111111111011110100001001100010001100000000000101111000011110010011111111101100010000100111100000110000000011100111101000000010001100000000111101101000011110110011000000000010011010010110100100111110010111000100000001111001001111111110110001000010011010000011000000001111011100000111001100110000000000000111101001111000001100000000111101101000011110110011000000000010011010010110100100111110010111000100000001111001001111111111111001111000011010010011111111101100010000100111100000110000000000000111101001110000001100000000111101110000011110110011000000000010011100010111000100111110010111000100000001111001001111111111111101111000011100010011111111101100010000100111100000110000010111000000000000000110111111111110111101000010011000100011000000000010011110000111100100110000000000000000000001111011011111100110111101000010000000100011000000000001011110000111100100110000000000000000000001111011011111100100000001000010111000100011000110110000000100000100000100110001101010000001001001000010001100011010000100010010011000100011111001010000000100000001000100110000000001000000000000001110111100000000000000000000000100010011 $
#400000
0!
#405000
1!
bx0000000000000111100001111001001100000000000000000000011110110111111110101110011111010000111000110000011000110111100001111001001100000000000000000000011110110111111111101100010000100111000000111111111011110100001001100010001100000000000101111000011110010011111111101100010000100111100000110000000011100111101000000010001100000000111101101000011110110011000000000010011010010110100100111110010111000100000001111001001111111110110001000010011010000011000000001111011100000111001100110000000000000111101001111000001100000000111101101000011110110011000000000010011010010110100100111110010111000100000001111001001111111111111001111000011010010011111111101100010000100111100000110000000000000111101001110000001100000000111101110000011110110011000000000010011100010111000100111110010111000100000001111001001111111111111101111000011100010011111111101100010000100111100000110000010111000000000000000110111111111110111101000010011000100011000000000010011110000111100100110000000000000000000001111011011111100110111101000010000000100011000000000001011110000111100100110000000000000000000001111011011111100100000001000010111000100011000110110000000100000100000100110001101010000001001001000010001100011010000100010010011000100011111001010000000100000001000100110000000001000000000000001110111100000000000000000000000100010011 $
#410000
0!
#415000
1!
bx000000000000011110000101000100110000000000000111100001111001001100000000000000000000011110110111111110101110011111010000111000110000011000110111100001111001001100000000000000000000011110110111111111101100010000100111000000111111111011110100001001100010001100000000000101111000011110010011111111101100010000100111100000110000000011100111101000000010001100000000111101101000011110110011000000000010011010010110100100111110010111000100000001111001001111111110110001000010011010000011000000001111011100000111001100110000000000000111101001111000001100000000111101101000011110110011000000000010011010010110100100111110010111000100000001111001001111111111111001111000011010010011111111101100010000100111100000110000000000000111101001110000001100000000111101110000011110110011000000000010011100010111000100111110010111000100000001111001001111111111111101111000011100010011111111101100010000100111100000110000010111000000000000000110111111111110111101000010011000100011000000000010011110000111100100110000000000000000000001111011011111100110111101000010000000100011000000000001011110000111100100110000000000000000000001111011011111100100000001000010111000100011000110110000000100000100000100110001101010000001001001000010001100011010000100010010011000100011111001010000000100000001000100110000000001000000000000001110111100000000000000000000000100010011 $
#420000
0!
#425000
1!
bx00011010110000010010000010000011000000000000011110000101000100110000000000000111100001111001001100000000000000000000011110110111111110101110011111010000111000110000011000110111100001111001001100000000000000000000011110110111111111101100010000100111000000111111111011110100001001100010001100000000000101111000011110010011111111101100010000100111100000110000000011100111101000000010001100000000111101101000011110110011000000000010011010010110100100111110010111000100000001111001001111111110110001000010011010000011000000001111011100000111001100110000000000000111101001111000001100000000111101101000011110110011000000000010011010010110100100111110010111000100000001111001001111111111111001111000011010010011111111101100010000100111100000110000000000000111101001110000001100000000111101110000011110110011000000000010011100010111000100111110010111000100000001111001001111111111111101111000011100010011111111101100010000100111100000110000010111000000000000000110111111111110111101000010011000100011000000000010011110000111100100110000000000000000000001111011011111100110111101000010000000100011000000000001011110000111100100110000000000000000000001111011011111100100000001000010111000100011000110110000000100000100000100110001101010000001001001000010001100011010000100010010011000100011111001010000000100000001000100110000000001000000000000001110111100000000000000000000000100010011 $
#430000
0!
#435000
1!
bx0001101010000001001001000000001100011010110000010010000010000011000000000000011110000101000100110000000000000111100001111001001100000000000000000000011110110111111110101110011111010000111000110000011000110111100001111001001100000000000000000000011110110111111111101100010000100111000000111111111011110100001001100010001100000000000101111000011110010011111111101100010000100111100000110000000011100111101000000010001100000000111101101000011110110011000000000010011010010110100100111110010111000100000001111001001111111110110001000010011010000011000000001111011100000111001100110000000000000111101001111000001100000000111101101000011110110011000000000010011010010110100100111110010111000100000001111001001111111111111001111000011010010011111111101100010000100111100000110000000000000111101001110000001100000000111101110000011110110011000000000010011100010111000100111110010111000100000001111001001111111111111101111000011100010011111111101100010000100111100000110000010111000000000000000110111111111110111101000010011000100011000000000010011110000111100100110000000000000000000001111011011111100110111101000010000000100011000000000001011110000111100100110000000000000000000001111011011111100100000001000010111000100011000110110000000100000100000100110001101010000001001001000010001100011010000100010010011000100011111001010000000100000001000100110000000001000000000000001110111100000000000000000000000100010011 $
#440000
0!
#445000
1!
bx000110110000000100000001000100110001101010000001001001000000001100011010110000010010000010000011000000000000011110000101000100110000000000000111100001111001001100000000000000000000011110110111111110101110011111010000111000110000011000110111100001111001001100000000000000000000011110110111111111101100010000100111000000111111111011110100001001100010001100000000000101111000011110010011111111101100010000100111100000110000000011100111101000000010001100000000111101101000011110110011000000000010011010010110100100111110010111000100000001111001001111111110110001000010011010000011000000001111011100000111001100110000000000000111101001111000001100000000111101101000011110110011000000000010011010010110100100111110010111000100000001111001001111111111111001111000011010010011111111101100010000100111100000110000000000000111101001110000001100000000111101110000011110110011000000000010011100010111000100111110010111000100000001111001001111111111111101111000011100010011111111101100010000100111100000110000010111000000000000000110111111111110111101000010011000100011000000000010011110000111100100110000000000000000000001111011011111100110111101000010000000100011000000000001011110000111100100110000000000000000000001111011011111100100000001000010111000100011000110110000000100000100000100110001101010000001001001000010001100011010000100010010011000100011111001010000000100000001000100110000000001000000000000001110111100000000000000000000000100010011 $
#450000
0!
#455000
1!
bx00000000000000001000000001100111000110110000000100000001000100110001101010000001001001000000001100011010110000010010000010000011000000000000011110000101000100110000000000000111100001111001001100000000000000000000011110110111111110101110011111010000111000110000011000110111100001111001001100000000000000000000011110110111111111101100010000100111000000111111111011110100001001100010001100000000000101111000011110010011111111101100010000100111100000110000000011100111101000000010001100000000111101101000011110110011000000000010011010010110100100111110010111000100000001111001001111111110110001000010011010000011000000001111011100000111001100110000000000000111101001111000001100000000111101101000011110110011000000000010011010010110100100111110010111000100000001111001001111111111111001111000011010010011111111101100010000100111100000110000000000000111101001110000001100000000111101110000011110110011000000000010011100010111000100111110010111000100000001111001001111111111111101111000011100010011111111101100010000100111100000110000010111000000000000000110111111111110111101000010011000100011000000000010011110000111100100110000000000000000000001111011011111100110111101000010000000100011000000000001011110000111100100110000000000000000000001111011011111100100000001000010111000100011000110110000000100000100000100110001101010000001001001000010001100011010000100010010011000100011111001010000000100000001000100110000000001000000000000001110111100000000000000000000000100010011 $
#460000
0!
#465000
1!
bx0000000000000000100000000110011100000000000000001000000001100111000110110000000100000001000100110001101010000001001001000000001100011010110000010010000010000011000000000000011110000101000100110000000000000111100001111001001100000000000000000000011110110111111110101110011111010000111000110000011000110111100001111001001100000000000000000000011110110111111111101100010000100111000000111111111011110100001001100010001100000000000101111000011110010011111111101100010000100111100000110000000011100111101000000010001100000000111101101000011110110011000000000010011010010110100100111110010111000100000001111001001111111110110001000010011010000011000000001111011100000111001100110000000000000111101001111000001100000000111101101000011110110011000000000010011010010110100100111110010111000100000001111001001111111111111001111000011010010011111111101100010000100111100000110000000000000111101001110000001100000000111101110000011110110011000000000010011100010111000100111110010111000100000001111001001111111111111101111000011100010011111111101100010000100111100000110000010111000000000000000110111111111110111101000010011000100011000000000010011110000111100100110000000000000000000001111011011111100110111101000010000000100011000000000001011110000111100100110000000000000000000001111011011111100100000001000010111000100011000110110000000100000100000100110001101010000001001001000010001100011010000100010010011000100011111001010000000100000001000100110000000001000000000000001110111100000000000000000000000100010011 $
#470000
0!
0"
#475000
1!
b100 #
#480000
0!
#485000
1!
b1000 #
#490000
0!
#495000
1!
b1100 #
#500000
0!
#505000
1!
b1000 #
#510000
0!
#515000
1!
b1100 #
#520000
0!
#525000
1!
b10000 #
b1000 %
#530000
0!
#535000
1!
b10100 #
#540000
0!
#545000
1!
b11000 #
#550000
0!
